// Jest Snapshot v1, https://goo.gl/fbAQLP

exports[`Layers renders correctly with different props length values 1`] = `
<div
  className="Layers "
>
  Something
</div>
`;

exports[`Layers renders correctly with different props length values 2`] = `
<div
  className="Layers Layers--first"
>
  Something
</div>
`;

exports[`Layers renders correctly with different props length values 3`] = `
<div
  className="Layers Layers--first Layers--second"
>
  Something
</div>
`;

exports[`Layers renders correctly with different props length values 4`] = `
<div
  className="Layers Layers--first Layers--second"
>
  Something
</div>
`;
